// Jest Snapshot v1, https://goo.gl/fbAQLP

exports[`TestStack renders 1`] = `
Object {
  "Outputs": Object {
    "appUrl": Object {
      "Value": Object {
        "Fn::Join": Array [
          "",
          Array [
            "https://",
            Object {
              "Fn::GetAtt": Array [
                "NextJSLambdaEdgeNextJSDistributionEE270534",
                "DomainName",
              ],
            },
          ],
        ],
      },
    },
  },
  "Resources": Object {
    "CustomCDKBucketDeployment8693BB64968944B69AAFB0CC9EB8756C81C01536": Object {
      "DependsOn": Array [
        "CustomCDKBucketDeployment8693BB64968944B69AAFB0CC9EB8756CServiceRoleDefaultPolicy88902FDF",
        "CustomCDKBucketDeployment8693BB64968944B69AAFB0CC9EB8756CServiceRole89A01265",
      ],
      "Properties": Object {
        "Code": Object {
          "S3Bucket": Object {
            "Fn::Sub": "cdk-hnb659fds-assets-\${AWS::AccountId}-us-east-1",
          },
          "S3Key": "{64HASH}.zip",
        },
        "Handler": "index.handler",
        "Layers": Array [
          Object {
            "Ref": "NextJSLambdaEdgeAssetDeploymentBuildIDAwsCliLayer3EF4D088",
          },
        ],
        "Role": Object {
          "Fn::GetAtt": Array [
            "CustomCDKBucketDeployment8693BB64968944B69AAFB0CC9EB8756CServiceRole89A01265",
            "Arn",
          ],
        },
        "Runtime": "python3.7",
        "Timeout": 900,
      },
      "Type": "AWS::Lambda::Function",
    },
    "CustomCDKBucketDeployment8693BB64968944B69AAFB0CC9EB8756CServiceRole89A01265": Object {
      "Properties": Object {
        "AssumeRolePolicyDocument": Object {
          "Statement": Array [
            Object {
              "Action": "sts:AssumeRole",
              "Effect": "Allow",
              "Principal": Object {
                "Service": "lambda.amazonaws.com",
              },
            },
          ],
          "Version": "2012-10-17",
        },
        "ManagedPolicyArns": Array [
          Object {
            "Fn::Join": Array [
              "",
              Array [
                "arn:",
                Object {
                  "Ref": "AWS::Partition",
                },
                ":iam::aws:policy/service-role/AWSLambdaBasicExecutionRole",
              ],
            ],
          },
        ],
      },
      "Type": "AWS::IAM::Role",
    },
    "CustomCDKBucketDeployment8693BB64968944B69AAFB0CC9EB8756CServiceRoleDefaultPolicy88902FDF": Object {
      "Properties": Object {
        "PolicyDocument": Object {
          "Statement": Array [
            Object {
              "Action": Array [
                "s3:GetObject*",
                "s3:GetBucket*",
                "s3:List*",
              ],
              "Effect": "Allow",
              "Resource": Array [
                Object {
                  "Fn::Join": Array [
                    "",
                    Array [
                      "arn:",
                      Object {
                        "Ref": "AWS::Partition",
                      },
                      ":s3:::",
                      Object {
                        "Fn::Sub": "cdk-hnb659fds-assets-\${AWS::AccountId}-us-east-1",
                      },
                    ],
                  ],
                },
                Object {
                  "Fn::Join": Array [
                    "",
                    Array [
                      "arn:",
                      Object {
                        "Ref": "AWS::Partition",
                      },
                      ":s3:::",
                      Object {
                        "Fn::Sub": "cdk-hnb659fds-assets-\${AWS::AccountId}-us-east-1",
                      },
                      "/*",
                    ],
                  ],
                },
              ],
            },
            Object {
              "Action": Array [
                "s3:GetObject*",
                "s3:GetBucket*",
                "s3:List*",
                "s3:DeleteObject*",
                "s3:PutObject",
                "s3:PutObjectLegalHold",
                "s3:PutObjectRetention",
                "s3:PutObjectTagging",
                "s3:PutObjectVersionTagging",
                "s3:Abort*",
              ],
              "Effect": "Allow",
              "Resource": Array [
                Object {
                  "Fn::GetAtt": Array [
                    "NextJSLambdaEdgePublicAssetsEA649B2C",
                    "Arn",
                  ],
                },
                Object {
                  "Fn::Join": Array [
                    "",
                    Array [
                      Object {
                        "Fn::GetAtt": Array [
                          "NextJSLambdaEdgePublicAssetsEA649B2C",
                          "Arn",
                        ],
                      },
                      "/*",
                    ],
                  ],
                },
              ],
            },
            Object {
              "Action": Array [
                "cloudfront:GetInvalidation",
                "cloudfront:CreateInvalidation",
              ],
              "Effect": "Allow",
              "Resource": "*",
            },
          ],
          "Version": "2012-10-17",
        },
        "PolicyName": "CustomCDKBucketDeployment8693BB64968944B69AAFB0CC9EB8756CServiceRoleDefaultPolicy88902FDF",
        "Roles": Array [
          Object {
            "Ref": "CustomCDKBucketDeployment8693BB64968944B69AAFB0CC9EB8756CServiceRole89A01265",
          },
        ],
      },
      "Type": "AWS::IAM::Policy",
    },
    "CustomS3AutoDeleteObjectsCustomResourceProviderHandler9D90184F": Object {
      "DependsOn": Array [
        "CustomS3AutoDeleteObjectsCustomResourceProviderRole3B1BD092",
      ],
      "Properties": Object {
        "Code": Object {
          "S3Bucket": Object {
            "Fn::Sub": "cdk-hnb659fds-assets-\${AWS::AccountId}-us-east-1",
          },
          "S3Key": "{64HASH}.zip",
        },
        "Description": Object {
          "Fn::Join": Array [
            "",
            Array [
              "Lambda function for auto-deleting objects in ",
              Object {
                "Ref": "NextJSLambdaEdgePublicAssetsEA649B2C",
              },
              " S3 bucket.",
            ],
          ],
        },
        "Handler": "__entrypoint__.handler",
        "MemorySize": 128,
        "Role": Object {
          "Fn::GetAtt": Array [
            "CustomS3AutoDeleteObjectsCustomResourceProviderRole3B1BD092",
            "Arn",
          ],
        },
        "Runtime": "nodejs14.x",
        "Timeout": 900,
      },
      "Type": "AWS::Lambda::Function",
    },
    "CustomS3AutoDeleteObjectsCustomResourceProviderRole3B1BD092": Object {
      "Properties": Object {
        "AssumeRolePolicyDocument": Object {
          "Statement": Array [
            Object {
              "Action": "sts:AssumeRole",
              "Effect": "Allow",
              "Principal": Object {
                "Service": "lambda.amazonaws.com",
              },
            },
          ],
          "Version": "2012-10-17",
        },
        "ManagedPolicyArns": Array [
          Object {
            "Fn::Sub": "arn:\${AWS::Partition}:iam::aws:policy/service-role/AWSLambdaBasicExecutionRole",
          },
        ],
      },
      "Type": "AWS::IAM::Role",
    },
    "LogRetentionaae0aa3c5b4d4f87b02d85b201efdd8aFD4BFC8A": Object {
      "DependsOn": Array [
        "LogRetentionaae0aa3c5b4d4f87b02d85b201efdd8aServiceRoleDefaultPolicyADDA7DEB",
        "LogRetentionaae0aa3c5b4d4f87b02d85b201efdd8aServiceRole9741ECFB",
      ],
      "Properties": Object {
        "Code": Object {
          "S3Bucket": Object {
            "Fn::Sub": "cdk-hnb659fds-assets-\${AWS::AccountId}-us-east-1",
          },
          "S3Key": "{64HASH}.zip",
        },
        "Handler": "index.handler",
        "Role": Object {
          "Fn::GetAtt": Array [
            "LogRetentionaae0aa3c5b4d4f87b02d85b201efdd8aServiceRole9741ECFB",
            "Arn",
          ],
        },
        "Runtime": "nodejs14.x",
      },
      "Type": "AWS::Lambda::Function",
    },
    "LogRetentionaae0aa3c5b4d4f87b02d85b201efdd8aServiceRole9741ECFB": Object {
      "Properties": Object {
        "AssumeRolePolicyDocument": Object {
          "Statement": Array [
            Object {
              "Action": "sts:AssumeRole",
              "Effect": "Allow",
              "Principal": Object {
                "Service": "lambda.amazonaws.com",
              },
            },
          ],
          "Version": "2012-10-17",
        },
        "ManagedPolicyArns": Array [
          Object {
            "Fn::Join": Array [
              "",
              Array [
                "arn:",
                Object {
                  "Ref": "AWS::Partition",
                },
                ":iam::aws:policy/service-role/AWSLambdaBasicExecutionRole",
              ],
            ],
          },
        ],
      },
      "Type": "AWS::IAM::Role",
    },
    "LogRetentionaae0aa3c5b4d4f87b02d85b201efdd8aServiceRoleDefaultPolicyADDA7DEB": Object {
      "Properties": Object {
        "PolicyDocument": Object {
          "Statement": Array [
            Object {
              "Action": Array [
                "logs:PutRetentionPolicy",
                "logs:DeleteRetentionPolicy",
              ],
              "Effect": "Allow",
              "Resource": "*",
            },
          ],
          "Version": "2012-10-17",
        },
        "PolicyName": "LogRetentionaae0aa3c5b4d4f87b02d85b201efdd8aServiceRoleDefaultPolicyADDA7DEB",
        "Roles": Array [
          Object {
            "Ref": "LogRetentionaae0aa3c5b4d4f87b02d85b201efdd8aServiceRole9741ECFB",
          },
        ],
      },
      "Type": "AWS::IAM::Policy",
    },
    "NextJSLambdaEdgeAssetDeploymentBuildIDAwsCliLayer3EF4D088": Object {
      "Properties": Object {
        "Content": Object {
          "S3Bucket": Object {
            "Fn::Sub": "cdk-hnb659fds-assets-\${AWS::AccountId}-us-east-1",
          },
          "S3Key": "{64HASH}.zip",
        },
        "Description": "/opt/awscli/aws",
      },
      "Type": "AWS::Lambda::LayerVersion",
    },
    "NextJSLambdaEdgeAssetDeploymentBuildIDCustomResource2E650CAA": Object {
      "DeletionPolicy": "Delete",
      "Properties": Object {
        "DestinationBucketKeyPrefix": "/BUILD_ID",
        "DestinationBucketName": Object {
          "Ref": "NextJSLambdaEdgePublicAssetsEA649B2C",
        },
        "DistributionId": Object {
          "Ref": "NextJSLambdaEdgeNextJSDistributionEE270534",
        },
        "DistributionPaths": Array [
          "/",
          "/404",
          "/_error",
          "/blog",
        ],
        "Prune": true,
        "ServiceToken": Object {
          "Fn::GetAtt": Array [
            "CustomCDKBucketDeployment8693BB64968944B69AAFB0CC9EB8756C81C01536",
            "Arn",
          ],
        },
        "SourceBucketNames": Array [
          Object {
            "Fn::Sub": "cdk-hnb659fds-assets-\${AWS::AccountId}-us-east-1",
          },
        ],
        "SourceObjectKeys": Array [
          "{64HASH}.zip",
        ],
      },
      "Type": "Custom::CDKBucketDeployment",
      "UpdateReplacePolicy": "Delete",
    },
    "NextJSLambdaEdgeAssetDeploymentnextDataAwsCliLayer1211F09D": Object {
      "Properties": Object {
        "Content": Object {
          "S3Bucket": Object {
            "Fn::Sub": "cdk-hnb659fds-assets-\${AWS::AccountId}-us-east-1",
          },
          "S3Key": "{64HASH}.zip",
        },
        "Description": "/opt/awscli/aws",
      },
      "Type": "AWS::Lambda::LayerVersion",
    },
    "NextJSLambdaEdgeAssetDeploymentnextDataCustomResourceD28ED2E8": Object {
      "DeletionPolicy": "Delete",
      "Properties": Object {
        "DestinationBucketKeyPrefix": "_next/data",
        "DestinationBucketName": Object {
          "Ref": "NextJSLambdaEdgePublicAssetsEA649B2C",
        },
        "Prune": true,
        "ServiceToken": Object {
          "Fn::GetAtt": Array [
            "CustomCDKBucketDeployment8693BB64968944B69AAFB0CC9EB8756C81C01536",
            "Arn",
          ],
        },
        "SourceBucketNames": Array [
          Object {
            "Fn::Sub": "cdk-hnb659fds-assets-\${AWS::AccountId}-us-east-1",
          },
        ],
        "SourceObjectKeys": Array [
          "{64HASH}.zip",
        ],
        "SystemMetadata": Object {
          "cache-control": "public, max-age=0, s-maxage=2678400, must-revalidate",
        },
      },
      "Type": "Custom::CDKBucketDeployment",
      "UpdateReplacePolicy": "Delete",
    },
    "NextJSLambdaEdgeAssetDeploymentnextStaticAwsCliLayerA5F0E05A": Object {
      "Properties": Object {
        "Content": Object {
          "S3Bucket": Object {
            "Fn::Sub": "cdk-hnb659fds-assets-\${AWS::AccountId}-us-east-1",
          },
          "S3Key": "{64HASH}.zip",
        },
        "Description": "/opt/awscli/aws",
      },
      "Type": "AWS::Lambda::LayerVersion",
    },
    "NextJSLambdaEdgeAssetDeploymentnextStaticCustomResourceE429839A": Object {
      "DeletionPolicy": "Delete",
      "Properties": Object {
        "DestinationBucketKeyPrefix": "_next/static",
        "DestinationBucketName": Object {
          "Ref": "NextJSLambdaEdgePublicAssetsEA649B2C",
        },
        "Prune": true,
        "ServiceToken": Object {
          "Fn::GetAtt": Array [
            "CustomCDKBucketDeployment8693BB64968944B69AAFB0CC9EB8756C81C01536",
            "Arn",
          ],
        },
        "SourceBucketNames": Array [
          Object {
            "Fn::Sub": "cdk-hnb659fds-assets-\${AWS::AccountId}-us-east-1",
          },
        ],
        "SourceObjectKeys": Array [
          "{64HASH}.zip",
        ],
        "SystemMetadata": Object {
          "cache-control": "public, max-age=31536000, immutable",
        },
      },
      "Type": "Custom::CDKBucketDeployment",
      "UpdateReplacePolicy": "Delete",
    },
    "NextJSLambdaEdgeAssetDeploymentpublicFilesAwsCliLayer037D95C3": Object {
      "Properties": Object {
        "Content": Object {
          "S3Bucket": Object {
            "Fn::Sub": "cdk-hnb659fds-assets-\${AWS::AccountId}-us-east-1",
          },
          "S3Key": "{64HASH}.zip",
        },
        "Description": "/opt/awscli/aws",
      },
      "Type": "AWS::Lambda::LayerVersion",
    },
    "NextJSLambdaEdgeAssetDeploymentpublicFilesCustomResourceAF2CD25C": Object {
      "DeletionPolicy": "Delete",
      "Properties": Object {
        "DestinationBucketKeyPrefix": "public",
        "DestinationBucketName": Object {
          "Ref": "NextJSLambdaEdgePublicAssetsEA649B2C",
        },
        "Prune": true,
        "ServiceToken": Object {
          "Fn::GetAtt": Array [
            "CustomCDKBucketDeployment8693BB64968944B69AAFB0CC9EB8756C81C01536",
            "Arn",
          ],
        },
        "SourceBucketNames": Array [
          Object {
            "Fn::Sub": "cdk-hnb659fds-assets-\${AWS::AccountId}-us-east-1",
          },
        ],
        "SourceObjectKeys": Array [
          "{64HASH}.zip",
        ],
        "SystemMetadata": Object {
          "cache-control": "public, max-age=31536000, must-revalidate",
        },
      },
      "Type": "Custom::CDKBucketDeployment",
      "UpdateReplacePolicy": "Delete",
    },
    "NextJSLambdaEdgeAssetDeploymentstaticPagesAwsCliLayerA84B003C": Object {
      "Properties": Object {
        "Content": Object {
          "S3Bucket": Object {
            "Fn::Sub": "cdk-hnb659fds-assets-\${AWS::AccountId}-us-east-1",
          },
          "S3Key": "{64HASH}.zip",
        },
        "Description": "/opt/awscli/aws",
      },
      "Type": "AWS::Lambda::LayerVersion",
    },
    "NextJSLambdaEdgeAssetDeploymentstaticPagesCustomResource5DA78252": Object {
      "DeletionPolicy": "Delete",
      "Properties": Object {
        "DestinationBucketKeyPrefix": "static-pages",
        "DestinationBucketName": Object {
          "Ref": "NextJSLambdaEdgePublicAssetsEA649B2C",
        },
        "Prune": true,
        "ServiceToken": Object {
          "Fn::GetAtt": Array [
            "CustomCDKBucketDeployment8693BB64968944B69AAFB0CC9EB8756C81C01536",
            "Arn",
          ],
        },
        "SourceBucketNames": Array [
          Object {
            "Fn::Sub": "cdk-hnb659fds-assets-\${AWS::AccountId}-us-east-1",
          },
        ],
        "SourceObjectKeys": Array [
          "{64HASH}.zip",
        ],
        "SystemMetadata": Object {
          "cache-control": "public, max-age=0, s-maxage=2678400, must-revalidate",
        },
      },
      "Type": "Custom::CDKBucketDeployment",
      "UpdateReplacePolicy": "Delete",
    },
    "NextJSLambdaEdgeNextEdgeLambdaRole1D72588B": Object {
      "Properties": Object {
        "AssumeRolePolicyDocument": Object {
          "Statement": Array [
            Object {
              "Action": "sts:AssumeRole",
              "Effect": "Allow",
              "Principal": Object {
                "Service": "lambda.amazonaws.com",
              },
            },
            Object {
              "Action": "sts:AssumeRole",
              "Effect": "Allow",
              "Principal": Object {
                "Service": "edgelambda.amazonaws.com",
              },
            },
          ],
          "Version": "2012-10-17",
        },
        "ManagedPolicyArns": Array [
          "arn:aws:iam::aws:policy/service-role/AWSLambdaBasicExecutionRole",
        ],
      },
      "Type": "AWS::IAM::Role",
    },
    "NextJSLambdaEdgeNextEdgeLambdaRoleDefaultPolicy107482F9": Object {
      "Properties": Object {
        "PolicyDocument": Object {
          "Statement": Array [
            Object {
              "Action": Array [
                "s3:GetObject*",
                "s3:GetBucket*",
                "s3:List*",
                "s3:DeleteObject*",
                "s3:PutObject",
                "s3:PutObjectLegalHold",
                "s3:PutObjectRetention",
                "s3:PutObjectTagging",
                "s3:PutObjectVersionTagging",
                "s3:Abort*",
              ],
              "Effect": "Allow",
              "Resource": Array [
                Object {
                  "Fn::GetAtt": Array [
                    "NextJSLambdaEdgePublicAssetsEA649B2C",
                    "Arn",
                  ],
                },
                Object {
                  "Fn::Join": Array [
                    "",
                    Array [
                      Object {
                        "Fn::GetAtt": Array [
                          "NextJSLambdaEdgePublicAssetsEA649B2C",
                          "Arn",
                        ],
                      },
                      "/*",
                    ],
                  ],
                },
              ],
            },
          ],
          "Version": "2012-10-17",
        },
        "PolicyName": "NextJSLambdaEdgeNextEdgeLambdaRoleDefaultPolicy107482F9",
        "Roles": Array [
          Object {
            "Ref": "NextJSLambdaEdgeNextEdgeLambdaRole1D72588B",
          },
        ],
      },
      "Type": "AWS::IAM::Policy",
    },
    "NextJSLambdaEdgeNextImageCacheEABFDEEE": Object {
      "Properties": Object {
        "CachePolicyConfig": Object {
          "DefaultTTL": 86400,
          "MaxTTL": 31536000,
          "MinTTL": 0,
          "Name": "TestStackNextJSLambdaEdgeNextImageCache519CBD75-us-east-1",
          "ParametersInCacheKeyAndForwardedToOrigin": Object {
            "CookiesConfig": Object {
              "CookieBehavior": "none",
            },
            "EnableAcceptEncodingBrotli": true,
            "EnableAcceptEncodingGzip": true,
            "HeadersConfig": Object {
              "HeaderBehavior": "whitelist",
              "Headers": Array [
                "Accept",
              ],
            },
            "QueryStringsConfig": Object {
              "QueryStringBehavior": "all",
            },
          },
        },
      },
      "Type": "AWS::CloudFront::CachePolicy",
    },
    "NextJSLambdaEdgeNextJSDistributionEE270534": Object {
      "Properties": Object {
        "DistributionConfig": Object {
          "CacheBehaviors": Array [
            Object {
              "AllowedMethods": Array [
                "GET",
                "HEAD",
                "OPTIONS",
              ],
              "CachePolicyId": Object {
                "Ref": "NextJSLambdaEdgeNextLambdaCache90545FDD",
              },
              "CachedMethods": Array [
                "GET",
                "HEAD",
                "OPTIONS",
              ],
              "Compress": true,
              "LambdaFunctionAssociations": Array [
                Object {
                  "EventType": "origin-request",
                  "IncludeBody": true,
                  "LambdaFunctionARN": Object {
                    "Ref": "NextJSLambdaEdgeNextLambdaCurrentVersion{40HASH}",
                  },
                },
                Object {
                  "EventType": "origin-response",
                  "LambdaFunctionARN": Object {
                    "Ref": "NextJSLambdaEdgeNextLambdaCurrentVersion{40HASH}",
                  },
                },
              ],
              "PathPattern": "_next/data/*",
              "TargetOriginId": "TestStackNextJSLambdaEdgeNextJSDistributionOrigin21538F5D1",
              "ViewerProtocolPolicy": "redirect-to-https",
            },
            Object {
              "AllowedMethods": Array [
                "GET",
                "HEAD",
                "OPTIONS",
              ],
              "CachePolicyId": Object {
                "Ref": "NextJSLambdaEdgeNextStaticsCache1836DC92",
              },
              "CachedMethods": Array [
                "GET",
                "HEAD",
                "OPTIONS",
              ],
              "Compress": true,
              "PathPattern": "_next/*",
              "TargetOriginId": "TestStackNextJSLambdaEdgeNextJSDistributionOrigin33DF11AB8",
              "ViewerProtocolPolicy": "redirect-to-https",
            },
            Object {
              "AllowedMethods": Array [
                "GET",
                "HEAD",
                "OPTIONS",
              ],
              "CachePolicyId": Object {
                "Ref": "NextJSLambdaEdgeNextStaticsCache1836DC92",
              },
              "CachedMethods": Array [
                "GET",
                "HEAD",
                "OPTIONS",
              ],
              "Compress": true,
              "PathPattern": "static/*",
              "TargetOriginId": "TestStackNextJSLambdaEdgeNextJSDistributionOrigin40F17B020",
              "ViewerProtocolPolicy": "redirect-to-https",
            },
          ],
          "DefaultCacheBehavior": Object {
            "AllowedMethods": Array [
              "GET",
              "HEAD",
              "OPTIONS",
              "PUT",
              "PATCH",
              "POST",
              "DELETE",
            ],
            "CachePolicyId": Object {
              "Ref": "NextJSLambdaEdgeNextLambdaCache90545FDD",
            },
            "CachedMethods": Array [
              "GET",
              "HEAD",
              "OPTIONS",
            ],
            "Compress": true,
            "LambdaFunctionAssociations": Array [
              Object {
                "EventType": "origin-request",
                "IncludeBody": true,
                "LambdaFunctionARN": Object {
                  "Ref": "NextJSLambdaEdgeNextLambdaCurrentVersion{40HASH}",
                },
              },
              Object {
                "EventType": "origin-response",
                "LambdaFunctionARN": Object {
                  "Ref": "NextJSLambdaEdgeNextLambdaCurrentVersion{40HASH}",
                },
              },
            ],
            "TargetOriginId": "TestStackNextJSLambdaEdgeNextJSDistributionOrigin1D9A84C2B",
            "ViewerProtocolPolicy": "redirect-to-https",
          },
          "DefaultRootObject": "",
          "Enabled": true,
          "HttpVersion": "http2",
          "IPV6Enabled": true,
          "Origins": Array [
            Object {
              "DomainName": Object {
                "Fn::GetAtt": Array [
                  "NextJSLambdaEdgePublicAssetsEA649B2C",
                  "RegionalDomainName",
                ],
              },
              "Id": "TestStackNextJSLambdaEdgeNextJSDistributionOrigin1D9A84C2B",
              "S3OriginConfig": Object {
                "OriginAccessIdentity": Object {
                  "Fn::Join": Array [
                    "",
                    Array [
                      "origin-access-identity/cloudfront/",
                      Object {
                        "Ref": "NextJSLambdaEdgeNextJSDistributionOrigin1S3Origin766564C8",
                      },
                    ],
                  ],
                },
              },
            },
            Object {
              "DomainName": Object {
                "Fn::GetAtt": Array [
                  "NextJSLambdaEdgePublicAssetsEA649B2C",
                  "RegionalDomainName",
                ],
              },
              "Id": "TestStackNextJSLambdaEdgeNextJSDistributionOrigin21538F5D1",
              "S3OriginConfig": Object {
                "OriginAccessIdentity": Object {
                  "Fn::Join": Array [
                    "",
                    Array [
                      "origin-access-identity/cloudfront/",
                      Object {
                        "Ref": "NextJSLambdaEdgeNextJSDistributionOrigin2S3Origin880FEFC2",
                      },
                    ],
                  ],
                },
              },
            },
            Object {
              "DomainName": Object {
                "Fn::GetAtt": Array [
                  "NextJSLambdaEdgePublicAssetsEA649B2C",
                  "RegionalDomainName",
                ],
              },
              "Id": "TestStackNextJSLambdaEdgeNextJSDistributionOrigin33DF11AB8",
              "S3OriginConfig": Object {
                "OriginAccessIdentity": Object {
                  "Fn::Join": Array [
                    "",
                    Array [
                      "origin-access-identity/cloudfront/",
                      Object {
                        "Ref": "NextJSLambdaEdgeNextJSDistributionOrigin3S3Origin400801F5",
                      },
                    ],
                  ],
                },
              },
            },
            Object {
              "DomainName": Object {
                "Fn::GetAtt": Array [
                  "NextJSLambdaEdgePublicAssetsEA649B2C",
                  "RegionalDomainName",
                ],
              },
              "Id": "TestStackNextJSLambdaEdgeNextJSDistributionOrigin40F17B020",
              "S3OriginConfig": Object {
                "OriginAccessIdentity": Object {
                  "Fn::Join": Array [
                    "",
                    Array [
                      "origin-access-identity/cloudfront/",
                      Object {
                        "Ref": "NextJSLambdaEdgeNextJSDistributionOrigin4S3OriginA10DC009",
                      },
                    ],
                  ],
                },
              },
            },
          ],
        },
      },
      "Type": "AWS::CloudFront::Distribution",
    },
    "NextJSLambdaEdgeNextJSDistributionOrigin1S3Origin766564C8": Object {
      "Properties": Object {
        "CloudFrontOriginAccessIdentityConfig": Object {
          "Comment": "Identity for TestStackNextJSLambdaEdgeNextJSDistributionOrigin1D9A84C2B",
        },
      },
      "Type": "AWS::CloudFront::CloudFrontOriginAccessIdentity",
    },
    "NextJSLambdaEdgeNextJSDistributionOrigin2S3Origin880FEFC2": Object {
      "Properties": Object {
        "CloudFrontOriginAccessIdentityConfig": Object {
          "Comment": "Identity for TestStackNextJSLambdaEdgeNextJSDistributionOrigin21538F5D1",
        },
      },
      "Type": "AWS::CloudFront::CloudFrontOriginAccessIdentity",
    },
    "NextJSLambdaEdgeNextJSDistributionOrigin3S3Origin400801F5": Object {
      "Properties": Object {
        "CloudFrontOriginAccessIdentityConfig": Object {
          "Comment": "Identity for TestStackNextJSLambdaEdgeNextJSDistributionOrigin33DF11AB8",
        },
      },
      "Type": "AWS::CloudFront::CloudFrontOriginAccessIdentity",
    },
    "NextJSLambdaEdgeNextJSDistributionOrigin4S3OriginA10DC009": Object {
      "Properties": Object {
        "CloudFrontOriginAccessIdentityConfig": Object {
          "Comment": "Identity for TestStackNextJSLambdaEdgeNextJSDistributionOrigin40F17B020",
        },
      },
      "Type": "AWS::CloudFront::CloudFrontOriginAccessIdentity",
    },
    "NextJSLambdaEdgeNextLambda5CA6EC86": Object {
      "DependsOn": Array [
        "NextJSLambdaEdgeNextEdgeLambdaRoleDefaultPolicy107482F9",
        "NextJSLambdaEdgeNextEdgeLambdaRole1D72588B",
      ],
      "Properties": Object {
        "Code": Object {
          "S3Bucket": Object {
            "Fn::Sub": "cdk-hnb659fds-assets-\${AWS::AccountId}-us-east-1",
          },
          "S3Key": "{64HASH}.zip",
        },
        "Description": "Default Lambda@Edge for Next CloudFront distribution",
        "Handler": "index.handler",
        "MemorySize": 512,
        "Role": Object {
          "Fn::GetAtt": Array [
            "NextJSLambdaEdgeNextEdgeLambdaRole1D72588B",
            "Arn",
          ],
        },
        "Runtime": "nodejs12.x",
        "Timeout": 10,
      },
      "Type": "AWS::Lambda::Function",
    },
    "NextJSLambdaEdgeNextLambdaCache90545FDD": Object {
      "Properties": Object {
        "CachePolicyConfig": Object {
          "DefaultTTL": 0,
          "MaxTTL": 31536000,
          "MinTTL": 0,
          "Name": "TestStackNextJSLambdaEdgeNextLambdaCache3447EDC4-us-east-1",
          "ParametersInCacheKeyAndForwardedToOrigin": Object {
            "CookiesConfig": Object {
              "CookieBehavior": "all",
            },
            "EnableAcceptEncodingBrotli": true,
            "EnableAcceptEncodingGzip": true,
            "HeadersConfig": Object {
              "HeaderBehavior": "none",
            },
            "QueryStringsConfig": Object {
              "QueryStringBehavior": "all",
            },
          },
        },
      },
      "Type": "AWS::CloudFront::CachePolicy",
    },
    "NextJSLambdaEdgeNextLambdaCurrentVersionAliasliveEACDD8B5": Object {
      "Properties": Object {
        "FunctionName": Object {
          "Ref": "NextJSLambdaEdgeNextLambda5CA6EC86",
        },
        "FunctionVersion": Object {
          "Fn::GetAtt": Array [
            "NextJSLambdaEdgeNextLambdaCurrentVersion{40HASH}",
            "Version",
          ],
        },
        "Name": "live",
      },
      "Type": "AWS::Lambda::Alias",
    },
    "NextJSLambdaEdgeNextLambdaCurrentVersion{40HASH}": Object {
      "DeletionPolicy": "Delete",
      "Properties": Object {
        "FunctionName": Object {
          "Ref": "NextJSLambdaEdgeNextLambda5CA6EC86",
        },
      },
      "Type": "AWS::Lambda::Version",
      "UpdateReplacePolicy": "Delete",
    },
    "NextJSLambdaEdgeNextLambdaLogRetention5CE4FCB9": Object {
      "Properties": Object {
        "LogGroupName": Object {
          "Fn::Join": Array [
            "",
            Array [
              "/aws/lambda/",
              Object {
                "Ref": "NextJSLambdaEdgeNextLambda5CA6EC86",
              },
            ],
          ],
        },
        "RetentionInDays": 3,
        "ServiceToken": Object {
          "Fn::GetAtt": Array [
            "LogRetentionaae0aa3c5b4d4f87b02d85b201efdd8aFD4BFC8A",
            "Arn",
          ],
        },
      },
      "Type": "Custom::LogRetention",
    },
    "NextJSLambdaEdgeNextStaticsCache1836DC92": Object {
      "Properties": Object {
        "CachePolicyConfig": Object {
          "DefaultTTL": 2592000,
          "MaxTTL": 2592000,
          "MinTTL": 2592000,
          "Name": "TestStackNextJSLambdaEdgeNextStaticsCache535B1618-us-east-1",
          "ParametersInCacheKeyAndForwardedToOrigin": Object {
            "CookiesConfig": Object {
              "CookieBehavior": "none",
            },
            "EnableAcceptEncodingBrotli": true,
            "EnableAcceptEncodingGzip": true,
            "HeadersConfig": Object {
              "HeaderBehavior": "none",
            },
            "QueryStringsConfig": Object {
              "QueryStringBehavior": "none",
            },
          },
        },
      },
      "Type": "AWS::CloudFront::CachePolicy",
    },
    "NextJSLambdaEdgePublicAssetsAutoDeleteObjectsCustomResource51241944": Object {
      "DeletionPolicy": "Delete",
      "DependsOn": Array [
        "NextJSLambdaEdgePublicAssetsPolicyC82E2FFB",
      ],
      "Properties": Object {
        "BucketName": Object {
          "Ref": "NextJSLambdaEdgePublicAssetsEA649B2C",
        },
        "ServiceToken": Object {
          "Fn::GetAtt": Array [
            "CustomS3AutoDeleteObjectsCustomResourceProviderHandler9D90184F",
            "Arn",
          ],
        },
      },
      "Type": "Custom::S3AutoDeleteObjects",
      "UpdateReplacePolicy": "Delete",
    },
    "NextJSLambdaEdgePublicAssetsEA649B2C": Object {
      "DeletionPolicy": "Delete",
      "Properties": Object {
        "Tags": Array [
          Object {
            "Key": "aws-cdk:auto-delete-objects",
            "Value": "true",
          },
          Object {
            "Key": "aws-cdk:cr-owned:_next/data:9209e36b",
            "Value": "true",
          },
          Object {
            "Key": "aws-cdk:cr-owned:_next/static:01a74c74",
            "Value": "true",
          },
          Object {
            "Key": "aws-cdk:cr-owned:/BUILD_ID:6e24ed9c",
            "Value": "true",
          },
          Object {
            "Key": "aws-cdk:cr-owned:public:d2b1f9f6",
            "Value": "true",
          },
          Object {
            "Key": "aws-cdk:cr-owned:static-pages:1c7cfd1b",
            "Value": "true",
          },
        ],
      },
      "Type": "AWS::S3::Bucket",
      "UpdateReplacePolicy": "Delete",
    },
    "NextJSLambdaEdgePublicAssetsPolicyC82E2FFB": Object {
      "Properties": Object {
        "Bucket": Object {
          "Ref": "NextJSLambdaEdgePublicAssetsEA649B2C",
        },
        "PolicyDocument": Object {
          "Statement": Array [
            Object {
              "Action": Array [
                "s3:GetBucket*",
                "s3:List*",
                "s3:DeleteObject*",
              ],
              "Effect": "Allow",
              "Principal": Object {
                "AWS": Object {
                  "Fn::GetAtt": Array [
                    "CustomS3AutoDeleteObjectsCustomResourceProviderRole3B1BD092",
                    "Arn",
                  ],
                },
              },
              "Resource": Array [
                Object {
                  "Fn::GetAtt": Array [
                    "NextJSLambdaEdgePublicAssetsEA649B2C",
                    "Arn",
                  ],
                },
                Object {
                  "Fn::Join": Array [
                    "",
                    Array [
                      Object {
                        "Fn::GetAtt": Array [
                          "NextJSLambdaEdgePublicAssetsEA649B2C",
                          "Arn",
                        ],
                      },
                      "/*",
                    ],
                  ],
                },
              ],
            },
            Object {
              "Action": "s3:GetObject",
              "Effect": "Allow",
              "Principal": Object {
                "CanonicalUser": Object {
                  "Fn::GetAtt": Array [
                    "NextJSLambdaEdgeNextJSDistributionOrigin1S3Origin766564C8",
                    "S3CanonicalUserId",
                  ],
                },
              },
              "Resource": Object {
                "Fn::Join": Array [
                  "",
                  Array [
                    Object {
                      "Fn::GetAtt": Array [
                        "NextJSLambdaEdgePublicAssetsEA649B2C",
                        "Arn",
                      ],
                    },
                    "/*",
                  ],
                ],
              },
            },
            Object {
              "Action": "s3:GetObject",
              "Effect": "Allow",
              "Principal": Object {
                "CanonicalUser": Object {
                  "Fn::GetAtt": Array [
                    "NextJSLambdaEdgeNextJSDistributionOrigin2S3Origin880FEFC2",
                    "S3CanonicalUserId",
                  ],
                },
              },
              "Resource": Object {
                "Fn::Join": Array [
                  "",
                  Array [
                    Object {
                      "Fn::GetAtt": Array [
                        "NextJSLambdaEdgePublicAssetsEA649B2C",
                        "Arn",
                      ],
                    },
                    "/*",
                  ],
                ],
              },
            },
            Object {
              "Action": "s3:GetObject",
              "Effect": "Allow",
              "Principal": Object {
                "CanonicalUser": Object {
                  "Fn::GetAtt": Array [
                    "NextJSLambdaEdgeNextJSDistributionOrigin3S3Origin400801F5",
                    "S3CanonicalUserId",
                  ],
                },
              },
              "Resource": Object {
                "Fn::Join": Array [
                  "",
                  Array [
                    Object {
                      "Fn::GetAtt": Array [
                        "NextJSLambdaEdgePublicAssetsEA649B2C",
                        "Arn",
                      ],
                    },
                    "/*",
                  ],
                ],
              },
            },
            Object {
              "Action": "s3:GetObject",
              "Effect": "Allow",
              "Principal": Object {
                "CanonicalUser": Object {
                  "Fn::GetAtt": Array [
                    "NextJSLambdaEdgeNextJSDistributionOrigin4S3OriginA10DC009",
                    "S3CanonicalUserId",
                  ],
                },
              },
              "Resource": Object {
                "Fn::Join": Array [
                  "",
                  Array [
                    Object {
                      "Fn::GetAtt": Array [
                        "NextJSLambdaEdgePublicAssetsEA649B2C",
                        "Arn",
                      ],
                    },
                    "/*",
                  ],
                ],
              },
            },
          ],
          "Version": "2012-10-17",
        },
      },
      "Type": "AWS::S3::BucketPolicy",
    },
  },
}
`;

exports[`TestStack renders with domain name and zone domain name 1`] = `
Object {
  "Mappings": Object {
    "AWSCloudFrontPartitionHostedZoneIdMap": Object {
      "aws": Object {
        "zoneId": "Z2FDTNDATAQYW2",
      },
      "aws-cn": Object {
        "zoneId": "Z3RFFRIM2A3IF5",
      },
    },
  },
  "Outputs": Object {
    "appUrl": Object {
      "Value": "https://subdomain.example.com",
    },
  },
  "Resources": Object {
    "CustomCDKBucketDeployment8693BB64968944B69AAFB0CC9EB8756C81C01536": Object {
      "DependsOn": Array [
        "CustomCDKBucketDeployment8693BB64968944B69AAFB0CC9EB8756CServiceRoleDefaultPolicy88902FDF",
        "CustomCDKBucketDeployment8693BB64968944B69AAFB0CC9EB8756CServiceRole89A01265",
      ],
      "Properties": Object {
        "Code": Object {
          "S3Bucket": Object {
            "Fn::Sub": "cdk-hnb659fds-assets-\${AWS::AccountId}-us-east-1",
          },
          "S3Key": "{64HASH}.zip",
        },
        "Handler": "index.handler",
        "Layers": Array [
          Object {
            "Ref": "NextJSLambdaEdgeAssetDeploymentBuildIDAwsCliLayer3EF4D088",
          },
        ],
        "Role": Object {
          "Fn::GetAtt": Array [
            "CustomCDKBucketDeployment8693BB64968944B69AAFB0CC9EB8756CServiceRole89A01265",
            "Arn",
          ],
        },
        "Runtime": "python3.7",
        "Timeout": 900,
      },
      "Type": "AWS::Lambda::Function",
    },
    "CustomCDKBucketDeployment8693BB64968944B69AAFB0CC9EB8756CServiceRole89A01265": Object {
      "Properties": Object {
        "AssumeRolePolicyDocument": Object {
          "Statement": Array [
            Object {
              "Action": "sts:AssumeRole",
              "Effect": "Allow",
              "Principal": Object {
                "Service": "lambda.amazonaws.com",
              },
            },
          ],
          "Version": "2012-10-17",
        },
        "ManagedPolicyArns": Array [
          Object {
            "Fn::Join": Array [
              "",
              Array [
                "arn:",
                Object {
                  "Ref": "AWS::Partition",
                },
                ":iam::aws:policy/service-role/AWSLambdaBasicExecutionRole",
              ],
            ],
          },
        ],
      },
      "Type": "AWS::IAM::Role",
    },
    "CustomCDKBucketDeployment8693BB64968944B69AAFB0CC9EB8756CServiceRoleDefaultPolicy88902FDF": Object {
      "Properties": Object {
        "PolicyDocument": Object {
          "Statement": Array [
            Object {
              "Action": Array [
                "s3:GetObject*",
                "s3:GetBucket*",
                "s3:List*",
              ],
              "Effect": "Allow",
              "Resource": Array [
                Object {
                  "Fn::Join": Array [
                    "",
                    Array [
                      "arn:",
                      Object {
                        "Ref": "AWS::Partition",
                      },
                      ":s3:::",
                      Object {
                        "Fn::Sub": "cdk-hnb659fds-assets-\${AWS::AccountId}-us-east-1",
                      },
                    ],
                  ],
                },
                Object {
                  "Fn::Join": Array [
                    "",
                    Array [
                      "arn:",
                      Object {
                        "Ref": "AWS::Partition",
                      },
                      ":s3:::",
                      Object {
                        "Fn::Sub": "cdk-hnb659fds-assets-\${AWS::AccountId}-us-east-1",
                      },
                      "/*",
                    ],
                  ],
                },
              ],
            },
            Object {
              "Action": Array [
                "s3:GetObject*",
                "s3:GetBucket*",
                "s3:List*",
                "s3:DeleteObject*",
                "s3:PutObject",
                "s3:PutObjectLegalHold",
                "s3:PutObjectRetention",
                "s3:PutObjectTagging",
                "s3:PutObjectVersionTagging",
                "s3:Abort*",
              ],
              "Effect": "Allow",
              "Resource": Array [
                Object {
                  "Fn::GetAtt": Array [
                    "NextJSLambdaEdgePublicAssetsEA649B2C",
                    "Arn",
                  ],
                },
                Object {
                  "Fn::Join": Array [
                    "",
                    Array [
                      Object {
                        "Fn::GetAtt": Array [
                          "NextJSLambdaEdgePublicAssetsEA649B2C",
                          "Arn",
                        ],
                      },
                      "/*",
                    ],
                  ],
                },
              ],
            },
            Object {
              "Action": Array [
                "cloudfront:GetInvalidation",
                "cloudfront:CreateInvalidation",
              ],
              "Effect": "Allow",
              "Resource": "*",
            },
          ],
          "Version": "2012-10-17",
        },
        "PolicyName": "CustomCDKBucketDeployment8693BB64968944B69AAFB0CC9EB8756CServiceRoleDefaultPolicy88902FDF",
        "Roles": Array [
          Object {
            "Ref": "CustomCDKBucketDeployment8693BB64968944B69AAFB0CC9EB8756CServiceRole89A01265",
          },
        ],
      },
      "Type": "AWS::IAM::Policy",
    },
    "CustomS3AutoDeleteObjectsCustomResourceProviderHandler9D90184F": Object {
      "DependsOn": Array [
        "CustomS3AutoDeleteObjectsCustomResourceProviderRole3B1BD092",
      ],
      "Properties": Object {
        "Code": Object {
          "S3Bucket": Object {
            "Fn::Sub": "cdk-hnb659fds-assets-\${AWS::AccountId}-us-east-1",
          },
          "S3Key": "{64HASH}.zip",
        },
        "Description": Object {
          "Fn::Join": Array [
            "",
            Array [
              "Lambda function for auto-deleting objects in ",
              Object {
                "Ref": "NextJSLambdaEdgePublicAssetsEA649B2C",
              },
              " S3 bucket.",
            ],
          ],
        },
        "Handler": "__entrypoint__.handler",
        "MemorySize": 128,
        "Role": Object {
          "Fn::GetAtt": Array [
            "CustomS3AutoDeleteObjectsCustomResourceProviderRole3B1BD092",
            "Arn",
          ],
        },
        "Runtime": "nodejs14.x",
        "Timeout": 900,
      },
      "Type": "AWS::Lambda::Function",
    },
    "CustomS3AutoDeleteObjectsCustomResourceProviderRole3B1BD092": Object {
      "Properties": Object {
        "AssumeRolePolicyDocument": Object {
          "Statement": Array [
            Object {
              "Action": "sts:AssumeRole",
              "Effect": "Allow",
              "Principal": Object {
                "Service": "lambda.amazonaws.com",
              },
            },
          ],
          "Version": "2012-10-17",
        },
        "ManagedPolicyArns": Array [
          Object {
            "Fn::Sub": "arn:\${AWS::Partition}:iam::aws:policy/service-role/AWSLambdaBasicExecutionRole",
          },
        ],
      },
      "Type": "AWS::IAM::Role",
    },
    "LogRetentionaae0aa3c5b4d4f87b02d85b201efdd8aFD4BFC8A": Object {
      "DependsOn": Array [
        "LogRetentionaae0aa3c5b4d4f87b02d85b201efdd8aServiceRoleDefaultPolicyADDA7DEB",
        "LogRetentionaae0aa3c5b4d4f87b02d85b201efdd8aServiceRole9741ECFB",
      ],
      "Properties": Object {
        "Code": Object {
          "S3Bucket": Object {
            "Fn::Sub": "cdk-hnb659fds-assets-\${AWS::AccountId}-us-east-1",
          },
          "S3Key": "{64HASH}.zip",
        },
        "Handler": "index.handler",
        "Role": Object {
          "Fn::GetAtt": Array [
            "LogRetentionaae0aa3c5b4d4f87b02d85b201efdd8aServiceRole9741ECFB",
            "Arn",
          ],
        },
        "Runtime": "nodejs14.x",
      },
      "Type": "AWS::Lambda::Function",
    },
    "LogRetentionaae0aa3c5b4d4f87b02d85b201efdd8aServiceRole9741ECFB": Object {
      "Properties": Object {
        "AssumeRolePolicyDocument": Object {
          "Statement": Array [
            Object {
              "Action": "sts:AssumeRole",
              "Effect": "Allow",
              "Principal": Object {
                "Service": "lambda.amazonaws.com",
              },
            },
          ],
          "Version": "2012-10-17",
        },
        "ManagedPolicyArns": Array [
          Object {
            "Fn::Join": Array [
              "",
              Array [
                "arn:",
                Object {
                  "Ref": "AWS::Partition",
                },
                ":iam::aws:policy/service-role/AWSLambdaBasicExecutionRole",
              ],
            ],
          },
        ],
      },
      "Type": "AWS::IAM::Role",
    },
    "LogRetentionaae0aa3c5b4d4f87b02d85b201efdd8aServiceRoleDefaultPolicyADDA7DEB": Object {
      "Properties": Object {
        "PolicyDocument": Object {
          "Statement": Array [
            Object {
              "Action": Array [
                "logs:PutRetentionPolicy",
                "logs:DeleteRetentionPolicy",
              ],
              "Effect": "Allow",
              "Resource": "*",
            },
          ],
          "Version": "2012-10-17",
        },
        "PolicyName": "LogRetentionaae0aa3c5b4d4f87b02d85b201efdd8aServiceRoleDefaultPolicyADDA7DEB",
        "Roles": Array [
          Object {
            "Ref": "LogRetentionaae0aa3c5b4d4f87b02d85b201efdd8aServiceRole9741ECFB",
          },
        ],
      },
      "Type": "AWS::IAM::Policy",
    },
    "NextJSLambdaEdgeAliasRecord0130884F7": Object {
      "Properties": Object {
        "AliasTarget": Object {
          "DNSName": Object {
            "Fn::GetAtt": Array [
              "NextJSLambdaEdgeNextJSDistributionEE270534",
              "DomainName",
            ],
          },
          "HostedZoneId": Object {
            "Fn::FindInMap": Array [
              "AWSCloudFrontPartitionHostedZoneIdMap",
              Object {
                "Ref": "AWS::Partition",
              },
              "zoneId",
            ],
          },
        },
        "HostedZoneId": "ZOJJZC49E0EPZ",
        "Name": "subdomain.example.com.",
        "Type": "A",
      },
      "Type": "AWS::Route53::RecordSet",
    },
    "NextJSLambdaEdgeAssetDeploymentBuildIDAwsCliLayer3EF4D088": Object {
      "Properties": Object {
        "Content": Object {
          "S3Bucket": Object {
            "Fn::Sub": "cdk-hnb659fds-assets-\${AWS::AccountId}-us-east-1",
          },
          "S3Key": "{64HASH}.zip",
        },
        "Description": "/opt/awscli/aws",
      },
      "Type": "AWS::Lambda::LayerVersion",
    },
    "NextJSLambdaEdgeAssetDeploymentBuildIDCustomResource2E650CAA": Object {
      "DeletionPolicy": "Delete",
      "Properties": Object {
        "DestinationBucketKeyPrefix": "/BUILD_ID",
        "DestinationBucketName": Object {
          "Ref": "NextJSLambdaEdgePublicAssetsEA649B2C",
        },
        "DistributionId": Object {
          "Ref": "NextJSLambdaEdgeNextJSDistributionEE270534",
        },
        "DistributionPaths": Array [
          "/",
          "/404",
          "/_error",
          "/blog",
        ],
        "Prune": true,
        "ServiceToken": Object {
          "Fn::GetAtt": Array [
            "CustomCDKBucketDeployment8693BB64968944B69AAFB0CC9EB8756C81C01536",
            "Arn",
          ],
        },
        "SourceBucketNames": Array [
          Object {
            "Fn::Sub": "cdk-hnb659fds-assets-\${AWS::AccountId}-us-east-1",
          },
        ],
        "SourceObjectKeys": Array [
          "{64HASH}.zip",
        ],
      },
      "Type": "Custom::CDKBucketDeployment",
      "UpdateReplacePolicy": "Delete",
    },
    "NextJSLambdaEdgeAssetDeploymentnextDataAwsCliLayer1211F09D": Object {
      "Properties": Object {
        "Content": Object {
          "S3Bucket": Object {
            "Fn::Sub": "cdk-hnb659fds-assets-\${AWS::AccountId}-us-east-1",
          },
          "S3Key": "{64HASH}.zip",
        },
        "Description": "/opt/awscli/aws",
      },
      "Type": "AWS::Lambda::LayerVersion",
    },
    "NextJSLambdaEdgeAssetDeploymentnextDataCustomResourceD28ED2E8": Object {
      "DeletionPolicy": "Delete",
      "Properties": Object {
        "DestinationBucketKeyPrefix": "_next/data",
        "DestinationBucketName": Object {
          "Ref": "NextJSLambdaEdgePublicAssetsEA649B2C",
        },
        "Prune": true,
        "ServiceToken": Object {
          "Fn::GetAtt": Array [
            "CustomCDKBucketDeployment8693BB64968944B69AAFB0CC9EB8756C81C01536",
            "Arn",
          ],
        },
        "SourceBucketNames": Array [
          Object {
            "Fn::Sub": "cdk-hnb659fds-assets-\${AWS::AccountId}-us-east-1",
          },
        ],
        "SourceObjectKeys": Array [
          "{64HASH}.zip",
        ],
        "SystemMetadata": Object {
          "cache-control": "public, max-age=0, s-maxage=2678400, must-revalidate",
        },
      },
      "Type": "Custom::CDKBucketDeployment",
      "UpdateReplacePolicy": "Delete",
    },
    "NextJSLambdaEdgeAssetDeploymentnextStaticAwsCliLayerA5F0E05A": Object {
      "Properties": Object {
        "Content": Object {
          "S3Bucket": Object {
            "Fn::Sub": "cdk-hnb659fds-assets-\${AWS::AccountId}-us-east-1",
          },
          "S3Key": "{64HASH}.zip",
        },
        "Description": "/opt/awscli/aws",
      },
      "Type": "AWS::Lambda::LayerVersion",
    },
    "NextJSLambdaEdgeAssetDeploymentnextStaticCustomResourceE429839A": Object {
      "DeletionPolicy": "Delete",
      "Properties": Object {
        "DestinationBucketKeyPrefix": "_next/static",
        "DestinationBucketName": Object {
          "Ref": "NextJSLambdaEdgePublicAssetsEA649B2C",
        },
        "Prune": true,
        "ServiceToken": Object {
          "Fn::GetAtt": Array [
            "CustomCDKBucketDeployment8693BB64968944B69AAFB0CC9EB8756C81C01536",
            "Arn",
          ],
        },
        "SourceBucketNames": Array [
          Object {
            "Fn::Sub": "cdk-hnb659fds-assets-\${AWS::AccountId}-us-east-1",
          },
        ],
        "SourceObjectKeys": Array [
          "{64HASH}.zip",
        ],
        "SystemMetadata": Object {
          "cache-control": "public, max-age=31536000, immutable",
        },
      },
      "Type": "Custom::CDKBucketDeployment",
      "UpdateReplacePolicy": "Delete",
    },
    "NextJSLambdaEdgeAssetDeploymentpublicFilesAwsCliLayer037D95C3": Object {
      "Properties": Object {
        "Content": Object {
          "S3Bucket": Object {
            "Fn::Sub": "cdk-hnb659fds-assets-\${AWS::AccountId}-us-east-1",
          },
          "S3Key": "{64HASH}.zip",
        },
        "Description": "/opt/awscli/aws",
      },
      "Type": "AWS::Lambda::LayerVersion",
    },
    "NextJSLambdaEdgeAssetDeploymentpublicFilesCustomResourceAF2CD25C": Object {
      "DeletionPolicy": "Delete",
      "Properties": Object {
        "DestinationBucketKeyPrefix": "public",
        "DestinationBucketName": Object {
          "Ref": "NextJSLambdaEdgePublicAssetsEA649B2C",
        },
        "Prune": true,
        "ServiceToken": Object {
          "Fn::GetAtt": Array [
            "CustomCDKBucketDeployment8693BB64968944B69AAFB0CC9EB8756C81C01536",
            "Arn",
          ],
        },
        "SourceBucketNames": Array [
          Object {
            "Fn::Sub": "cdk-hnb659fds-assets-\${AWS::AccountId}-us-east-1",
          },
        ],
        "SourceObjectKeys": Array [
          "{64HASH}.zip",
        ],
        "SystemMetadata": Object {
          "cache-control": "public, max-age=31536000, must-revalidate",
        },
      },
      "Type": "Custom::CDKBucketDeployment",
      "UpdateReplacePolicy": "Delete",
    },
    "NextJSLambdaEdgeAssetDeploymentstaticPagesAwsCliLayerA84B003C": Object {
      "Properties": Object {
        "Content": Object {
          "S3Bucket": Object {
            "Fn::Sub": "cdk-hnb659fds-assets-\${AWS::AccountId}-us-east-1",
          },
          "S3Key": "{64HASH}.zip",
        },
        "Description": "/opt/awscli/aws",
      },
      "Type": "AWS::Lambda::LayerVersion",
    },
    "NextJSLambdaEdgeAssetDeploymentstaticPagesCustomResource5DA78252": Object {
      "DeletionPolicy": "Delete",
      "Properties": Object {
        "DestinationBucketKeyPrefix": "static-pages",
        "DestinationBucketName": Object {
          "Ref": "NextJSLambdaEdgePublicAssetsEA649B2C",
        },
        "Prune": true,
        "ServiceToken": Object {
          "Fn::GetAtt": Array [
            "CustomCDKBucketDeployment8693BB64968944B69AAFB0CC9EB8756C81C01536",
            "Arn",
          ],
        },
        "SourceBucketNames": Array [
          Object {
            "Fn::Sub": "cdk-hnb659fds-assets-\${AWS::AccountId}-us-east-1",
          },
        ],
        "SourceObjectKeys": Array [
          "{64HASH}.zip",
        ],
        "SystemMetadata": Object {
          "cache-control": "public, max-age=0, s-maxage=2678400, must-revalidate",
        },
      },
      "Type": "Custom::CDKBucketDeployment",
      "UpdateReplacePolicy": "Delete",
    },
    "NextJSLambdaEdgeNextEdgeLambdaRole1D72588B": Object {
      "Properties": Object {
        "AssumeRolePolicyDocument": Object {
          "Statement": Array [
            Object {
              "Action": "sts:AssumeRole",
              "Effect": "Allow",
              "Principal": Object {
                "Service": "lambda.amazonaws.com",
              },
            },
            Object {
              "Action": "sts:AssumeRole",
              "Effect": "Allow",
              "Principal": Object {
                "Service": "edgelambda.amazonaws.com",
              },
            },
          ],
          "Version": "2012-10-17",
        },
        "ManagedPolicyArns": Array [
          "arn:aws:iam::aws:policy/service-role/AWSLambdaBasicExecutionRole",
        ],
      },
      "Type": "AWS::IAM::Role",
    },
    "NextJSLambdaEdgeNextEdgeLambdaRoleDefaultPolicy107482F9": Object {
      "Properties": Object {
        "PolicyDocument": Object {
          "Statement": Array [
            Object {
              "Action": Array [
                "s3:GetObject*",
                "s3:GetBucket*",
                "s3:List*",
                "s3:DeleteObject*",
                "s3:PutObject",
                "s3:PutObjectLegalHold",
                "s3:PutObjectRetention",
                "s3:PutObjectTagging",
                "s3:PutObjectVersionTagging",
                "s3:Abort*",
              ],
              "Effect": "Allow",
              "Resource": Array [
                Object {
                  "Fn::GetAtt": Array [
                    "NextJSLambdaEdgePublicAssetsEA649B2C",
                    "Arn",
                  ],
                },
                Object {
                  "Fn::Join": Array [
                    "",
                    Array [
                      Object {
                        "Fn::GetAtt": Array [
                          "NextJSLambdaEdgePublicAssetsEA649B2C",
                          "Arn",
                        ],
                      },
                      "/*",
                    ],
                  ],
                },
              ],
            },
          ],
          "Version": "2012-10-17",
        },
        "PolicyName": "NextJSLambdaEdgeNextEdgeLambdaRoleDefaultPolicy107482F9",
        "Roles": Array [
          Object {
            "Ref": "NextJSLambdaEdgeNextEdgeLambdaRole1D72588B",
          },
        ],
      },
      "Type": "AWS::IAM::Policy",
    },
    "NextJSLambdaEdgeNextImageCacheEABFDEEE": Object {
      "Properties": Object {
        "CachePolicyConfig": Object {
          "DefaultTTL": 86400,
          "MaxTTL": 31536000,
          "MinTTL": 0,
          "Name": "TestStackNextJSLambdaEdgeNextImageCache519CBD75-us-east-1",
          "ParametersInCacheKeyAndForwardedToOrigin": Object {
            "CookiesConfig": Object {
              "CookieBehavior": "none",
            },
            "EnableAcceptEncodingBrotli": true,
            "EnableAcceptEncodingGzip": true,
            "HeadersConfig": Object {
              "HeaderBehavior": "whitelist",
              "Headers": Array [
                "Accept",
              ],
            },
            "QueryStringsConfig": Object {
              "QueryStringBehavior": "all",
            },
          },
        },
      },
      "Type": "AWS::CloudFront::CachePolicy",
    },
    "NextJSLambdaEdgeNextJSDistributionEE270534": Object {
      "Properties": Object {
        "DistributionConfig": Object {
          "Aliases": Array [
            "subdomain.example.com",
          ],
          "CacheBehaviors": Array [
            Object {
              "AllowedMethods": Array [
                "GET",
                "HEAD",
                "OPTIONS",
              ],
              "CachePolicyId": Object {
                "Ref": "NextJSLambdaEdgeNextLambdaCache90545FDD",
              },
              "CachedMethods": Array [
                "GET",
                "HEAD",
                "OPTIONS",
              ],
              "Compress": true,
              "LambdaFunctionAssociations": Array [
                Object {
                  "EventType": "origin-request",
                  "IncludeBody": true,
                  "LambdaFunctionARN": Object {
                    "Ref": "NextJSLambdaEdgeNextLambdaCurrentVersion{40HASH}",
                  },
                },
                Object {
                  "EventType": "origin-response",
                  "LambdaFunctionARN": Object {
                    "Ref": "NextJSLambdaEdgeNextLambdaCurrentVersion{40HASH}",
                  },
                },
              ],
              "PathPattern": "_next/data/*",
              "TargetOriginId": "TestStackNextJSLambdaEdgeNextJSDistributionOrigin21538F5D1",
              "ViewerProtocolPolicy": "redirect-to-https",
            },
            Object {
              "AllowedMethods": Array [
                "GET",
                "HEAD",
                "OPTIONS",
              ],
              "CachePolicyId": Object {
                "Ref": "NextJSLambdaEdgeNextStaticsCache1836DC92",
              },
              "CachedMethods": Array [
                "GET",
                "HEAD",
                "OPTIONS",
              ],
              "Compress": true,
              "PathPattern": "_next/*",
              "TargetOriginId": "TestStackNextJSLambdaEdgeNextJSDistributionOrigin33DF11AB8",
              "ViewerProtocolPolicy": "redirect-to-https",
            },
            Object {
              "AllowedMethods": Array [
                "GET",
                "HEAD",
                "OPTIONS",
              ],
              "CachePolicyId": Object {
                "Ref": "NextJSLambdaEdgeNextStaticsCache1836DC92",
              },
              "CachedMethods": Array [
                "GET",
                "HEAD",
                "OPTIONS",
              ],
              "Compress": true,
              "PathPattern": "static/*",
              "TargetOriginId": "TestStackNextJSLambdaEdgeNextJSDistributionOrigin40F17B020",
              "ViewerProtocolPolicy": "redirect-to-https",
            },
          ],
          "DefaultCacheBehavior": Object {
            "AllowedMethods": Array [
              "GET",
              "HEAD",
              "OPTIONS",
              "PUT",
              "PATCH",
              "POST",
              "DELETE",
            ],
            "CachePolicyId": Object {
              "Ref": "NextJSLambdaEdgeNextLambdaCache90545FDD",
            },
            "CachedMethods": Array [
              "GET",
              "HEAD",
              "OPTIONS",
            ],
            "Compress": true,
            "LambdaFunctionAssociations": Array [
              Object {
                "EventType": "origin-request",
                "IncludeBody": true,
                "LambdaFunctionARN": Object {
                  "Ref": "NextJSLambdaEdgeNextLambdaCurrentVersion{40HASH}",
                },
              },
              Object {
                "EventType": "origin-response",
                "LambdaFunctionARN": Object {
                  "Ref": "NextJSLambdaEdgeNextLambdaCurrentVersion{40HASH}",
                },
              },
            ],
            "TargetOriginId": "TestStackNextJSLambdaEdgeNextJSDistributionOrigin1D9A84C2B",
            "ViewerProtocolPolicy": "redirect-to-https",
          },
          "DefaultRootObject": "",
          "Enabled": true,
          "HttpVersion": "http2",
          "IPV6Enabled": true,
          "Origins": Array [
            Object {
              "DomainName": Object {
                "Fn::GetAtt": Array [
                  "NextJSLambdaEdgePublicAssetsEA649B2C",
                  "RegionalDomainName",
                ],
              },
              "Id": "TestStackNextJSLambdaEdgeNextJSDistributionOrigin1D9A84C2B",
              "S3OriginConfig": Object {
                "OriginAccessIdentity": Object {
                  "Fn::Join": Array [
                    "",
                    Array [
                      "origin-access-identity/cloudfront/",
                      Object {
                        "Ref": "NextJSLambdaEdgeNextJSDistributionOrigin1S3Origin766564C8",
                      },
                    ],
                  ],
                },
              },
            },
            Object {
              "DomainName": Object {
                "Fn::GetAtt": Array [
                  "NextJSLambdaEdgePublicAssetsEA649B2C",
                  "RegionalDomainName",
                ],
              },
              "Id": "TestStackNextJSLambdaEdgeNextJSDistributionOrigin21538F5D1",
              "S3OriginConfig": Object {
                "OriginAccessIdentity": Object {
                  "Fn::Join": Array [
                    "",
                    Array [
                      "origin-access-identity/cloudfront/",
                      Object {
                        "Ref": "NextJSLambdaEdgeNextJSDistributionOrigin2S3Origin880FEFC2",
                      },
                    ],
                  ],
                },
              },
            },
            Object {
              "DomainName": Object {
                "Fn::GetAtt": Array [
                  "NextJSLambdaEdgePublicAssetsEA649B2C",
                  "RegionalDomainName",
                ],
              },
              "Id": "TestStackNextJSLambdaEdgeNextJSDistributionOrigin33DF11AB8",
              "S3OriginConfig": Object {
                "OriginAccessIdentity": Object {
                  "Fn::Join": Array [
                    "",
                    Array [
                      "origin-access-identity/cloudfront/",
                      Object {
                        "Ref": "NextJSLambdaEdgeNextJSDistributionOrigin3S3Origin400801F5",
                      },
                    ],
                  ],
                },
              },
            },
            Object {
              "DomainName": Object {
                "Fn::GetAtt": Array [
                  "NextJSLambdaEdgePublicAssetsEA649B2C",
                  "RegionalDomainName",
                ],
              },
              "Id": "TestStackNextJSLambdaEdgeNextJSDistributionOrigin40F17B020",
              "S3OriginConfig": Object {
                "OriginAccessIdentity": Object {
                  "Fn::Join": Array [
                    "",
                    Array [
                      "origin-access-identity/cloudfront/",
                      Object {
                        "Ref": "NextJSLambdaEdgeNextJSDistributionOrigin4S3OriginA10DC009",
                      },
                    ],
                  ],
                },
              },
            },
          ],
          "ViewerCertificate": Object {
            "AcmCertificateArn": Object {
              "Ref": "certificateEC031123",
            },
            "MinimumProtocolVersion": "TLSv1.2_2021",
            "SslSupportMethod": "sni-only",
          },
        },
      },
      "Type": "AWS::CloudFront::Distribution",
    },
    "NextJSLambdaEdgeNextJSDistributionOrigin1S3Origin766564C8": Object {
      "Properties": Object {
        "CloudFrontOriginAccessIdentityConfig": Object {
          "Comment": "Identity for TestStackNextJSLambdaEdgeNextJSDistributionOrigin1D9A84C2B",
        },
      },
      "Type": "AWS::CloudFront::CloudFrontOriginAccessIdentity",
    },
    "NextJSLambdaEdgeNextJSDistributionOrigin2S3Origin880FEFC2": Object {
      "Properties": Object {
        "CloudFrontOriginAccessIdentityConfig": Object {
          "Comment": "Identity for TestStackNextJSLambdaEdgeNextJSDistributionOrigin21538F5D1",
        },
      },
      "Type": "AWS::CloudFront::CloudFrontOriginAccessIdentity",
    },
    "NextJSLambdaEdgeNextJSDistributionOrigin3S3Origin400801F5": Object {
      "Properties": Object {
        "CloudFrontOriginAccessIdentityConfig": Object {
          "Comment": "Identity for TestStackNextJSLambdaEdgeNextJSDistributionOrigin33DF11AB8",
        },
      },
      "Type": "AWS::CloudFront::CloudFrontOriginAccessIdentity",
    },
    "NextJSLambdaEdgeNextJSDistributionOrigin4S3OriginA10DC009": Object {
      "Properties": Object {
        "CloudFrontOriginAccessIdentityConfig": Object {
          "Comment": "Identity for TestStackNextJSLambdaEdgeNextJSDistributionOrigin40F17B020",
        },
      },
      "Type": "AWS::CloudFront::CloudFrontOriginAccessIdentity",
    },
    "NextJSLambdaEdgeNextLambda5CA6EC86": Object {
      "DependsOn": Array [
        "NextJSLambdaEdgeNextEdgeLambdaRoleDefaultPolicy107482F9",
        "NextJSLambdaEdgeNextEdgeLambdaRole1D72588B",
      ],
      "Properties": Object {
        "Code": Object {
          "S3Bucket": Object {
            "Fn::Sub": "cdk-hnb659fds-assets-\${AWS::AccountId}-us-east-1",
          },
          "S3Key": "{64HASH}.zip",
        },
        "Description": "Default Lambda@Edge for Next CloudFront distribution",
        "Handler": "index.handler",
        "MemorySize": 512,
        "Role": Object {
          "Fn::GetAtt": Array [
            "NextJSLambdaEdgeNextEdgeLambdaRole1D72588B",
            "Arn",
          ],
        },
        "Runtime": "nodejs12.x",
        "Timeout": 10,
      },
      "Type": "AWS::Lambda::Function",
    },
    "NextJSLambdaEdgeNextLambdaCache90545FDD": Object {
      "Properties": Object {
        "CachePolicyConfig": Object {
          "DefaultTTL": 0,
          "MaxTTL": 31536000,
          "MinTTL": 0,
          "Name": "TestStackNextJSLambdaEdgeNextLambdaCache3447EDC4-us-east-1",
          "ParametersInCacheKeyAndForwardedToOrigin": Object {
            "CookiesConfig": Object {
              "CookieBehavior": "all",
            },
            "EnableAcceptEncodingBrotli": true,
            "EnableAcceptEncodingGzip": true,
            "HeadersConfig": Object {
              "HeaderBehavior": "none",
            },
            "QueryStringsConfig": Object {
              "QueryStringBehavior": "all",
            },
          },
        },
      },
      "Type": "AWS::CloudFront::CachePolicy",
    },
    "NextJSLambdaEdgeNextLambdaCurrentVersionAliasliveEACDD8B5": Object {
      "Properties": Object {
        "FunctionName": Object {
          "Ref": "NextJSLambdaEdgeNextLambda5CA6EC86",
        },
        "FunctionVersion": Object {
          "Fn::GetAtt": Array [
            "NextJSLambdaEdgeNextLambdaCurrentVersion{40HASH}",
            "Version",
          ],
        },
        "Name": "live",
      },
      "Type": "AWS::Lambda::Alias",
    },
    "NextJSLambdaEdgeNextLambdaCurrentVersion{40HASH}": Object {
      "DeletionPolicy": "Delete",
      "Properties": Object {
        "FunctionName": Object {
          "Ref": "NextJSLambdaEdgeNextLambda5CA6EC86",
        },
      },
      "Type": "AWS::Lambda::Version",
      "UpdateReplacePolicy": "Delete",
    },
    "NextJSLambdaEdgeNextLambdaLogRetention5CE4FCB9": Object {
      "Properties": Object {
        "LogGroupName": Object {
          "Fn::Join": Array [
            "",
            Array [
              "/aws/lambda/",
              Object {
                "Ref": "NextJSLambdaEdgeNextLambda5CA6EC86",
              },
            ],
          ],
        },
        "RetentionInDays": 3,
        "ServiceToken": Object {
          "Fn::GetAtt": Array [
            "LogRetentionaae0aa3c5b4d4f87b02d85b201efdd8aFD4BFC8A",
            "Arn",
          ],
        },
      },
      "Type": "Custom::LogRetention",
    },
    "NextJSLambdaEdgeNextStaticsCache1836DC92": Object {
      "Properties": Object {
        "CachePolicyConfig": Object {
          "DefaultTTL": 2592000,
          "MaxTTL": 2592000,
          "MinTTL": 2592000,
          "Name": "TestStackNextJSLambdaEdgeNextStaticsCache535B1618-us-east-1",
          "ParametersInCacheKeyAndForwardedToOrigin": Object {
            "CookiesConfig": Object {
              "CookieBehavior": "none",
            },
            "EnableAcceptEncodingBrotli": true,
            "EnableAcceptEncodingGzip": true,
            "HeadersConfig": Object {
              "HeaderBehavior": "none",
            },
            "QueryStringsConfig": Object {
              "QueryStringBehavior": "none",
            },
          },
        },
      },
      "Type": "AWS::CloudFront::CachePolicy",
    },
    "NextJSLambdaEdgePublicAssetsAutoDeleteObjectsCustomResource51241944": Object {
      "DeletionPolicy": "Delete",
      "DependsOn": Array [
        "NextJSLambdaEdgePublicAssetsPolicyC82E2FFB",
      ],
      "Properties": Object {
        "BucketName": Object {
          "Ref": "NextJSLambdaEdgePublicAssetsEA649B2C",
        },
        "ServiceToken": Object {
          "Fn::GetAtt": Array [
            "CustomS3AutoDeleteObjectsCustomResourceProviderHandler9D90184F",
            "Arn",
          ],
        },
      },
      "Type": "Custom::S3AutoDeleteObjects",
      "UpdateReplacePolicy": "Delete",
    },
    "NextJSLambdaEdgePublicAssetsEA649B2C": Object {
      "DeletionPolicy": "Delete",
      "Properties": Object {
        "Tags": Array [
          Object {
            "Key": "aws-cdk:auto-delete-objects",
            "Value": "true",
          },
          Object {
            "Key": "aws-cdk:cr-owned:_next/data:9209e36b",
            "Value": "true",
          },
          Object {
            "Key": "aws-cdk:cr-owned:_next/static:01a74c74",
            "Value": "true",
          },
          Object {
            "Key": "aws-cdk:cr-owned:/BUILD_ID:6e24ed9c",
            "Value": "true",
          },
          Object {
            "Key": "aws-cdk:cr-owned:public:d2b1f9f6",
            "Value": "true",
          },
          Object {
            "Key": "aws-cdk:cr-owned:static-pages:1c7cfd1b",
            "Value": "true",
          },
        ],
      },
      "Type": "AWS::S3::Bucket",
      "UpdateReplacePolicy": "Delete",
    },
    "NextJSLambdaEdgePublicAssetsPolicyC82E2FFB": Object {
      "Properties": Object {
        "Bucket": Object {
          "Ref": "NextJSLambdaEdgePublicAssetsEA649B2C",
        },
        "PolicyDocument": Object {
          "Statement": Array [
            Object {
              "Action": Array [
                "s3:GetBucket*",
                "s3:List*",
                "s3:DeleteObject*",
              ],
              "Effect": "Allow",
              "Principal": Object {
                "AWS": Object {
                  "Fn::GetAtt": Array [
                    "CustomS3AutoDeleteObjectsCustomResourceProviderRole3B1BD092",
                    "Arn",
                  ],
                },
              },
              "Resource": Array [
                Object {
                  "Fn::GetAtt": Array [
                    "NextJSLambdaEdgePublicAssetsEA649B2C",
                    "Arn",
                  ],
                },
                Object {
                  "Fn::Join": Array [
                    "",
                    Array [
                      Object {
                        "Fn::GetAtt": Array [
                          "NextJSLambdaEdgePublicAssetsEA649B2C",
                          "Arn",
                        ],
                      },
                      "/*",
                    ],
                  ],
                },
              ],
            },
            Object {
              "Action": "s3:GetObject",
              "Effect": "Allow",
              "Principal": Object {
                "CanonicalUser": Object {
                  "Fn::GetAtt": Array [
                    "NextJSLambdaEdgeNextJSDistributionOrigin1S3Origin766564C8",
                    "S3CanonicalUserId",
                  ],
                },
              },
              "Resource": Object {
                "Fn::Join": Array [
                  "",
                  Array [
                    Object {
                      "Fn::GetAtt": Array [
                        "NextJSLambdaEdgePublicAssetsEA649B2C",
                        "Arn",
                      ],
                    },
                    "/*",
                  ],
                ],
              },
            },
            Object {
              "Action": "s3:GetObject",
              "Effect": "Allow",
              "Principal": Object {
                "CanonicalUser": Object {
                  "Fn::GetAtt": Array [
                    "NextJSLambdaEdgeNextJSDistributionOrigin2S3Origin880FEFC2",
                    "S3CanonicalUserId",
                  ],
                },
              },
              "Resource": Object {
                "Fn::Join": Array [
                  "",
                  Array [
                    Object {
                      "Fn::GetAtt": Array [
                        "NextJSLambdaEdgePublicAssetsEA649B2C",
                        "Arn",
                      ],
                    },
                    "/*",
                  ],
                ],
              },
            },
            Object {
              "Action": "s3:GetObject",
              "Effect": "Allow",
              "Principal": Object {
                "CanonicalUser": Object {
                  "Fn::GetAtt": Array [
                    "NextJSLambdaEdgeNextJSDistributionOrigin3S3Origin400801F5",
                    "S3CanonicalUserId",
                  ],
                },
              },
              "Resource": Object {
                "Fn::Join": Array [
                  "",
                  Array [
                    Object {
                      "Fn::GetAtt": Array [
                        "NextJSLambdaEdgePublicAssetsEA649B2C",
                        "Arn",
                      ],
                    },
                    "/*",
                  ],
                ],
              },
            },
            Object {
              "Action": "s3:GetObject",
              "Effect": "Allow",
              "Principal": Object {
                "CanonicalUser": Object {
                  "Fn::GetAtt": Array [
                    "NextJSLambdaEdgeNextJSDistributionOrigin4S3OriginA10DC009",
                    "S3CanonicalUserId",
                  ],
                },
              },
              "Resource": Object {
                "Fn::Join": Array [
                  "",
                  Array [
                    Object {
                      "Fn::GetAtt": Array [
                        "NextJSLambdaEdgePublicAssetsEA649B2C",
                        "Arn",
                      ],
                    },
                    "/*",
                  ],
                ],
              },
            },
          ],
          "Version": "2012-10-17",
        },
      },
      "Type": "AWS::S3::BucketPolicy",
    },
    "certificateEC031123": Object {
      "Properties": Object {
        "DomainName": "subdomain.example.com",
        "DomainValidationOptions": Array [
          Object {
            "DomainName": "subdomain.example.com",
            "HostedZoneId": "ZOJJZC49E0EPZ",
          },
        ],
        "ValidationMethod": "DNS",
      },
      "Type": "AWS::CertificateManager::Certificate",
    },
  },
}
`;
